<?xml version="1.0" encoding="UTF-8" standalone="no"?>
<!-- Generator: Adobe Illustrator 19.0.0, SVG Export Plug-In . SVG Version: 6.00 Build 0)  -->

<svg
   xmlns:dc="http://purl.org/dc/elements/1.1/"
   xmlns:cc="http://creativecommons.org/ns#"
   xmlns:rdf="http://www.w3.org/1999/02/22-rdf-syntax-ns#"
   xmlns:svg="http://www.w3.org/2000/svg"
   xmlns="http://www.w3.org/2000/svg"
   xmlns:sodipodi="http://sodipodi.sourceforge.net/DTD/sodipodi-0.dtd"
   xmlns:inkscape="http://www.inkscape.org/namespaces/inkscape"
   version="1.1"
   id="Capa_1"
   x="0px"
   y="0px"
   viewBox="0 0 23.999999 23.999999"
   xml:space="preserve"
   sodipodi:docname="chipb.svg"
   width="24"
   height="24"
   inkscape:version="0.92.4 (5da689c313, 2019-01-14)"><metadata
   id="metadata55"><rdf:RDF><cc:Work
       rdf:about=""><dc:format>image/svg+xml</dc:format><dc:type
         rdf:resource="http://purl.org/dc/dcmitype/StillImage" /><dc:title></dc:title></cc:Work></rdf:RDF></metadata><defs
   id="defs53" /><sodipodi:namedview
   pagecolor="#ffffff"
   bordercolor="#666666"
   borderopacity="1"
   objecttolerance="10"
   gridtolerance="10"
   guidetolerance="10"
   inkscape:pageopacity="0"
   inkscape:pageshadow="2"
   inkscape:window-width="1721"
   inkscape:window-height="955"
   id="namedview51"
   showgrid="false"
   inkscape:zoom="20.859568"
   inkscape:cx="-4.1027089"
   inkscape:cy="8.0794605"
   inkscape:window-x="0"
   inkscape:window-y="0"
   inkscape:window-maximized="0"
   inkscape:current-layer="Capa_1" />


<g
   id="g871"
   transform="matrix(0.04296858,0,0,0.04296858,1.0546718,1.0402413)"
   style="fill:#007100;fill-opacity:0.60714287"><g
     id="g6"
     style="fill:#007100;fill-opacity:0.60714287">
	<g
   id="g4"
   style="fill:#007100;fill-opacity:0.60714287">
		<path
   id="path2"
   d="M 504.5,248.501 H 383.742 v -17.064 h 32.581 c 4.142,0 7.5,-3.358 7.5,-7.5 0,-4.142 -3.358,-7.5 -7.5,-7.5 h -32.581 v -17.065 h 22.62 c 8.427,0 16.35,-3.281 22.308,-9.24 l 49.326,-49.326 c 3.214,1.601 6.777,2.453 10.473,2.453 6.286,0 12.195,-2.448 16.64,-6.892 4.445,-4.445 6.893,-10.354 6.893,-16.64 0,-6.286 -2.448,-12.195 -6.893,-16.64 -4.444,-4.445 -10.354,-6.893 -16.64,-6.893 -6.286,0 -12.195,2.448 -16.64,6.892 -4.445,4.445 -6.893,10.354 -6.893,16.64 0,3.696 0.852,7.259 2.453,10.473 l -49.326,49.326 c -3.125,3.125 -7.281,4.847 -11.702,4.847 h -22.62 v -16.548 c 0,-21.816 -17.749,-39.564 -39.564,-39.564 H 327.629 V 61.865 c 9.308,-3.139 16.032,-11.946 16.032,-22.3 0,-12.976 -10.557,-23.532 -23.532,-23.532 -12.975,0 -23.532,10.557 -23.532,23.532 0,10.354 6.724,19.16 16.032,22.3 v 66.394 H 295.565 V 95.678 c 0,-4.142 -3.358,-7.5 -7.5,-7.5 -4.142,0 -7.5,3.358 -7.5,7.5 v 32.581 H 263.5 V 7.501 c 0,-4.142 -3.358,-7.5 -7.5,-7.5 -4.142,0 -7.5,3.358 -7.5,7.5 V 128.259 H 231.436 V 95.678 c 0,-4.142 -3.358,-7.5 -7.5,-7.5 -4.142,0 -7.5,3.358 -7.5,7.5 v 32.581 H 199.372 V 105.64 c 0,-8.427 -3.282,-16.35 -9.241,-22.308 L 140.788,33.989 c 4.359,-8.801 2.898,-19.775 -4.421,-27.095 -9.176,-9.175 -24.105,-9.174 -33.28,0 -9.175,9.175 -9.175,24.104 0,33.28 4.588,4.587 10.614,6.881 16.64,6.881 3.588,0 7.17,-0.833 10.455,-2.46 l 49.343,49.344 c 3.126,3.125 4.847,7.281 4.847,11.701 v 22.619 h -16.548 c -3.345,0 -6.672,0.42 -9.888,1.247 -4.011,1.032 -6.426,5.121 -5.394,9.133 1.032,4.012 5.122,6.427 9.133,5.394 1.995,-0.513 4.063,-0.774 6.148,-0.774 h 176.354 c 13.545,0 24.564,11.02 24.564,24.564 v 176.355 c 0,2.083 -0.26,4.15 -0.772,6.143 -1.031,4.012 1.385,8.1 5.396,9.131 0.626,0.161 1.254,0.238 1.873,0.238 3.341,0 6.388,-2.249 7.258,-5.635 0.826,-3.212 1.245,-6.536 1.245,-9.878 v -16.548 h 66.394 c 3.139,9.308 11.946,16.032 22.3,16.032 12.976,0 23.532,-10.556 23.532,-23.532 0,-12.976 -10.557,-23.532 -23.532,-23.532 -10.354,0 -19.16,6.724 -22.3,16.032 h -66.394 v -17.065 h 32.581 c 4.142,0 7.5,-3.358 7.5,-7.5 0,-4.142 -3.358,-7.5 -7.5,-7.5 H 383.741 V 263.501 H 504.5 c 4.142,0 7.5,-3.358 7.5,-7.5 0,-4.142 -3.358,-7.5 -7.5,-7.5 z M 482.435,113.694 c 1.612,-1.612 3.754,-2.499 6.033,-2.499 2.279,0 4.421,0.887 6.033,2.499 1.612,1.612 2.499,3.754 2.499,6.033 0,2.279 -0.887,4.421 -2.499,6.033 -1.612,1.612 -3.754,2.499 -6.033,2.499 -2.279,0 -4.421,-0.887 -6.033,-2.499 -1.612,-1.612 -2.499,-3.754 -2.499,-6.033 0,-2.279 0.887,-4.422 2.499,-6.033 z M 125.759,29.568 c -3.326,3.325 -8.739,3.326 -12.067,-0.001 -3.327,-3.327 -3.327,-8.74 0,-12.066 1.664,-1.664 3.848,-2.495 6.034,-2.495 2.185,0 4.37,0.832 6.033,2.495 3.327,3.327 3.327,8.74 0,12.067 z m 194.37,18.529 c -4.704,0 -8.532,-3.828 -8.532,-8.532 0,-4.704 3.827,-8.532 8.532,-8.532 4.705,0 8.532,3.828 8.532,8.532 0,4.704 -3.828,8.532 -8.532,8.532 z m 152.307,263.501 c 4.705,0 8.532,3.828 8.532,8.532 0,4.705 -3.828,8.532 -8.532,8.532 -4.704,0 -8.532,-3.828 -8.532,-8.532 -10e-4,-4.705 3.827,-8.532 8.532,-8.532 z"
   inkscape:connector-curvature="0"
   style="fill:#007100;fill-opacity:0.60714287" />
	</g>
</g><g
     id="g12"
     style="fill:#007100;fill-opacity:0.60714287">
	<g
   id="g10"
   style="fill:#007100;fill-opacity:0.60714287">
		<path
   id="path8"
   d="m 408.914,471.829 c -7.319,-7.32 -18.294,-8.781 -27.095,-4.422 l -49.343,-49.344 c -3.126,-3.125 -4.847,-7.281 -4.847,-11.701 v -22.619 h 16.548 c 3.345,0 6.671,-0.42 9.886,-1.247 4.011,-1.032 6.426,-5.121 5.394,-9.133 -1.032,-4.011 -5.119,-6.426 -9.133,-5.394 -1.994,0.513 -4.062,0.773 -6.147,0.773 H 167.823 c -13.545,0 -24.564,-11.02 -24.564,-24.564 V 167.824 c 0,-2.085 0.26,-4.153 0.773,-6.146 1.033,-4.011 -1.382,-8.1 -5.393,-9.133 -4.012,-1.033 -8.101,1.382 -9.133,5.393 -0.828,3.214 -1.247,6.54 -1.247,9.886 v 16.548 H 61.864 c -3.139,-9.308 -11.946,-16.032 -22.3,-16.032 -12.976,0 -23.532,10.556 -23.532,23.532 0,12.976 10.557,23.532 23.532,23.532 10.354,0 19.16,-6.724 22.3,-16.032 h 66.394 v 17.065 H 95.677 c -4.142,0 -7.5,3.358 -7.5,7.5 0,4.142 3.358,7.5 7.5,7.5 h 32.581 v 17.064 H 7.5 c -4.142,0 -7.5,3.358 -7.5,7.5 0,4.142 3.358,7.5 7.5,7.5 h 120.758 v 17.064 H 95.677 c -4.142,0 -7.5,3.358 -7.5,7.5 0,4.142 3.358,7.5 7.5,7.5 h 32.581 v 17.065 h -22.62 c -8.427,0 -16.35,3.281 -22.308,9.24 l -49.326,49.326 c -3.214,-1.601 -6.777,-2.453 -10.473,-2.453 -6.286,0 -12.195,2.448 -16.64,6.892 C 2.448,380.08 0,385.99 0,392.275 c 0,6.285 2.448,12.195 6.893,16.64 4.444,4.445 10.354,6.892 16.64,6.892 6.286,0 12.195,-2.448 16.64,-6.892 4.445,-4.445 6.893,-10.354 6.893,-16.64 0,-3.696 -0.852,-7.259 -2.453,-10.473 l 49.326,-49.326 c 3.125,-3.125 7.281,-4.847 11.702,-4.847 h 22.62 v 16.548 c 0,21.816 17.749,39.564 39.564,39.564 h 16.548 v 66.394 c -9.308,3.139 -16.032,11.946 -16.032,22.3 0,12.976 10.557,23.532 23.532,23.532 12.975,0 23.532,-10.557 23.532,-23.532 0,-10.354 -6.724,-19.16 -16.032,-22.3 v -66.394 h 17.064 v 32.581 c 0,4.142 3.358,7.5 7.5,7.5 4.142,0 7.5,-3.358 7.5,-7.5 V 383.741 H 248.5 v 120.76 c 0,4.142 3.358,7.5 7.5,7.5 4.142,0 7.5,-3.358 7.5,-7.5 V 383.743 h 17.064 v 32.581 c 0,4.142 3.358,7.5 7.5,7.5 4.142,0 7.5,-3.358 7.5,-7.5 v -32.581 h 17.064 v 22.619 c 0,8.427 3.282,16.35 9.241,22.308 l 49.343,49.343 c -4.359,8.801 -2.898,19.775 4.422,27.095 4.587,4.588 10.614,6.881 16.64,6.881 6.026,0 12.053,-2.293 16.64,-6.881 9.175,-9.175 9.175,-24.104 0,-33.279 z M 39.564,200.404 c -4.705,0 -8.532,-3.828 -8.532,-8.532 0,-4.705 3.828,-8.532 8.532,-8.532 4.704,0 8.532,3.828 8.532,8.532 0.001,4.705 -3.827,8.532 -8.532,8.532 z m -9.999,197.904 c -1.612,1.612 -3.754,2.499 -6.033,2.499 -2.279,0 -4.421,-0.887 -6.033,-2.499 C 15.887,396.696 15,394.554 15,392.275 c 0,-2.279 0.887,-4.421 2.499,-6.033 1.612,-1.612 3.754,-2.499 6.033,-2.499 2.279,0 4.421,0.887 6.033,2.499 1.612,1.612 2.499,3.754 2.499,6.033 0,2.279 -0.887,4.422 -2.499,6.033 z m 170.838,74.129 c 0,4.704 -3.827,8.532 -8.532,8.532 -4.705,0 -8.532,-3.828 -8.532,-8.532 0,-4.704 3.828,-8.532 8.532,-8.532 4.704,0 8.532,3.828 8.532,8.532 z m 197.905,22.065 c -3.327,3.327 -8.74,3.326 -12.067,0 -3.327,-3.327 -3.327,-8.74 0,-12.066 1.664,-1.663 3.849,-2.495 6.034,-2.495 2.185,0 4.37,0.832 6.033,2.495 3.326,3.326 3.326,8.739 0,12.066 z"
   inkscape:connector-curvature="0"
   style="fill:#007100;fill-opacity:0.60714287" />
	</g>
</g><g
     id="g18"
     style="fill:#007100;fill-opacity:0.60714287">
	<g
   id="g16"
   style="fill:#007100;fill-opacity:0.60714287">
		<path
   id="path14"
   d="m 335.645,235.962 c 0,-16.04 -11.732,-29.627 -27.793,-34.042 0.475,-1.961 0.739,-3.978 0.739,-6.039 0,-15.186 -13.479,-27.541 -30.045,-27.541 -8.974,0 -17.035,3.629 -22.545,9.365 -5.51,-5.736 -13.572,-9.365 -22.545,-9.365 -16.567,0 -30.045,12.355 -30.045,27.541 0,2.061 0.264,4.078 0.739,6.039 -16.061,4.414 -27.793,18.001 -27.793,34.042 0,7.839 2.774,15.235 7.899,21.343 -5.011,6.487 -7.899,14.362 -7.899,22.746 -0.002,12.752 6.812,24.659 18.035,32.045 0,0.006 0,0.012 0,0.018 0,17.396 15.501,31.549 34.555,31.549 10.95,0 20.719,-4.679 27.054,-11.957 6.335,7.278 16.104,11.957 27.054,11.957 18.337,0 33.376,-13.11 34.482,-29.602 11.137,-6.462 18.108,-17.781 18.108,-30.003 0,-8.99 -3.833,-17.566 -10.43,-24.048 6.596,-6.482 10.43,-15.059 10.43,-24.048 z m -26.544,30.68 c 7.227,3.814 11.541,10.325 11.541,17.416 0,5.287 -2.457,10.33 -6.607,14.101 -3.943,-7.301 -10.912,-13.113 -19.717,-15.879 -3.95,-1.241 -8.161,0.956 -9.403,4.907 -1.242,3.952 0.956,8.162 4.907,9.403 7.646,2.403 12.784,8.642 12.784,15.525 0,9.125 -8.772,16.549 -19.555,16.549 -10.782,0 -19.554,-7.424 -19.554,-16.549 v -48.097 c 0,-9.125 8.772,-16.548 19.554,-16.548 4.142,0 7.5,-3.358 7.5,-7.5 0,-4.142 -3.358,-7.5 -7.5,-7.5 -7.254,0 -13.99,2.056 -19.554,5.557 v -9.58 c 0,-4.142 -3.358,-7.5 -7.5,-7.5 -4.142,0 -7.5,3.358 -7.5,7.5 v 41.637 c -2.524,-1.584 -5.292,-2.895 -8.286,-3.836 -3.954,-1.242 -8.162,0.956 -9.403,4.906 -1.242,3.952 0.955,8.162 4.906,9.404 7.646,2.403 12.783,8.642 12.783,15.524 v 16.032 c 0,9.125 -8.772,16.549 -19.554,16.549 -10.783,0 -19.555,-7.424 -19.555,-16.549 0,-3.911 1.658,-7.713 4.668,-10.705 2.938,-2.92 2.952,-7.669 0.032,-10.607 -2.92,-2.938 -7.668,-2.952 -10.606,-0.032 -1.797,1.787 -3.344,3.739 -4.63,5.814 -4.736,-4.48 -7.501,-10.374 -7.501,-16.535 0,-11.112 8.721,-20.874 21.208,-23.739 4.037,-0.926 6.559,-4.95 5.633,-8.987 -0.926,-4.038 -4.951,-6.559 -8.987,-5.633 -5.027,1.153 -9.655,3.078 -13.759,5.605 -2.661,-3.342 -4.094,-7.256 -4.094,-11.335 0.003,-11.281 10.697,-20.465 23.88,-20.552 0.067,0.002 0.134,0.011 0.2,0.011 1.712,0 3.433,-0.583 4.842,-1.776 2.875,-2.434 3.452,-6.564 1.522,-9.671 -0.057,-0.092 -0.109,-0.186 -0.169,-0.275 -0.031,-0.045 -0.068,-0.088 -0.1,-0.133 -0.116,-0.163 -0.235,-0.323 -0.364,-0.477 -0.004,-0.005 -0.007,-0.01 -0.011,-0.014 -1.251,-1.479 -2.744,-3.927 -2.744,-7.193 0,-6.915 6.75,-12.541 15.045,-12.541 8.295,0 15.045,5.626 15.045,12.541 0,4.142 3.358,7.5 7.5,7.5 4.142,0 7.5,-3.358 7.5,-7.5 0,-6.915 6.75,-12.541 15.045,-12.541 8.295,0 15.045,5.626 15.045,12.541 0,1.848 -0.484,3.424 -1.125,4.72 -4.266,0.403 -8.392,1.434 -12.309,3.086 -3.817,1.609 -5.606,6.008 -3.997,9.825 1.609,3.816 6.008,5.607 9.825,3.997 3.242,-1.367 6.73,-2.07 10.368,-2.098 0.072,0.002 0.143,0.009 0.215,0.009 0.067,0 0.133,-0.009 0.2,-0.011 13.183,0.086 23.877,9.271 23.877,20.552 0,7.091 -4.314,13.601 -11.541,17.416 -2.46,1.298 -4,3.851 -4,6.633 0,2.782 1.54,5.335 4,6.633 z"
   inkscape:connector-curvature="0"
   style="fill:#007100;fill-opacity:0.60714287" />
	</g>
</g></g>
<g
   id="g20"
   transform="translate(0,-488.00201)">
</g>
<g
   id="g22"
   transform="translate(0,-488.00201)">
</g>
<g
   id="g24"
   transform="translate(0,-488.00201)">
</g>
<g
   id="g26"
   transform="translate(0,-488.00201)">
</g>
<g
   id="g28"
   transform="translate(0,-488.00201)">
</g>
<g
   id="g30"
   transform="translate(0,-488.00201)">
</g>
<g
   id="g32"
   transform="translate(0,-488.00201)">
</g>
<g
   id="g34"
   transform="translate(0,-488.00201)">
</g>
<g
   id="g36"
   transform="translate(0,-488.00201)">
</g>
<g
   id="g38"
   transform="translate(0,-488.00201)">
</g>
<g
   id="g40"
   transform="translate(0,-488.00201)">
</g>
<g
   id="g42"
   transform="translate(0,-488.00201)">
</g>
<g
   id="g44"
   transform="translate(0,-488.00201)">
</g>
<g
   id="g46"
   transform="translate(0,-488.00201)">
</g>
<g
   id="g48"
   transform="translate(0,-488.00201)">
</g>
</svg>