<?xml version="1.0" encoding="UTF-8" standalone="no"?>
<!-- Generator: Adobe Illustrator 19.0.0, SVG Export Plug-In . SVG Version: 6.00 Build 0)  -->

<svg
   xmlns:dc="http://purl.org/dc/elements/1.1/"
   xmlns:cc="http://creativecommons.org/ns#"
   xmlns:rdf="http://www.w3.org/1999/02/22-rdf-syntax-ns#"
   xmlns:svg="http://www.w3.org/2000/svg"
   xmlns="http://www.w3.org/2000/svg"
   xmlns:sodipodi="http://sodipodi.sourceforge.net/DTD/sodipodi-0.dtd"
   xmlns:inkscape="http://www.inkscape.org/namespaces/inkscape"
   version="1.1"
   id="Capa_1"
   x="0px"
   y="0px"
   viewBox="0 0 24 24"
   xml:space="preserve"
   sodipodi:docname="expandN.svg"
   width="24"
   height="24"
   inkscape:version="0.92.4 (5da689c313, 2019-01-14)"><metadata
   id="metadata97"><rdf:RDF><cc:Work
       rdf:about=""><dc:format>image/svg+xml</dc:format><dc:type
         rdf:resource="http://purl.org/dc/dcmitype/StillImage" /><dc:title></dc:title></cc:Work></rdf:RDF></metadata><defs
   id="defs95">
	
</defs><sodipodi:namedview
   pagecolor="#ffffff"
   bordercolor="#666666"
   borderopacity="1"
   objecttolerance="10"
   gridtolerance="10"
   guidetolerance="10"
   inkscape:pageopacity="0"
   inkscape:pageshadow="2"
   inkscape:window-width="1920"
   inkscape:window-height="1017"
   id="namedview93"
   showgrid="false"
   inkscape:zoom="14.750086"
   inkscape:cx="15.682957"
   inkscape:cy="20.761355"
   inkscape:window-x="1912"
   inkscape:window-y="576"
   inkscape:window-maximized="1"
   inkscape:current-layer="Capa_1" />
<g
   id="g6"
   transform="matrix(0.03906273,0,0,0.03906273,2.0338862,2.1664802)">
	<g
   id="g4">
		<rect
   x="283.46301"
   y="471.577"
   width="89.817001"
   height="39.918999"
   id="rect2" />
	</g>
</g>
<g
   id="g12"
   transform="matrix(0.03906273,0,0,0.03906273,2.0338862,2.1664802)">
	<g
   id="g10">
		<path
   d="m 471.083,430.621 v 19.959 0 c 0,11.58 -9.421,21 -21,21 h -19.959 v 39.919 h 19.959 c 33.592,0 60.919,-27.328 60.919,-60.919 v -19.959 z"
   id="path8"
   inkscape:connector-curvature="0" />
	</g>
</g>
<g
   id="g18"
   transform="matrix(0.03906273,0,0,0.03906273,2.0338862,2.1664802)">
	<g
   id="g16">
		<rect
   x="137.80901"
   y="0.49700001"
   width="89.817001"
   height="39.918999"
   id="rect14" />
	</g>
</g>
<g
   id="g24"
   transform="matrix(0.03906273,0,0,0.03906273,2.0338862,2.1664802)">
	<g
   id="g22">
		<rect
   x="283.46301"
   y="0.49700001"
   width="89.817001"
   height="39.918999"
   id="rect20" />
	</g>
</g>
<g
   id="g30"
   transform="matrix(0.03906273,0,0,0.03906273,2.0338862,2.1664802)">
	<g
   id="g28">
		<path
   d="M 60.962,0.497 C 27.37,0.497 0.043,27.825 0.043,61.416 V 81.375 H 39.962 V 61.416 c 0,-11.58 9.421,-21 21,-21 H 80.921 V 0.497 Z"
   id="path26"
   inkscape:connector-curvature="0" />
	</g>
</g>
<g
   id="g36"
   transform="matrix(0.03906273,0,0,0.03906273,2.0338862,2.1664802)">
	<g
   id="g34">
		<path
   d="m 450.083,0.497 h -19.959 v 39.919 h 19.959 c 11.58,0 21,9.421 21,21 v 19.959 h 39.919 V 61.416 c 0,-33.591 -27.327,-60.919 -60.919,-60.919 z"
   id="path32"
   inkscape:connector-curvature="0" />
	</g>
</g>
<g
   id="g42"
   transform="matrix(0.03906273,0,0,0.03906273,2.0338862,2.1664802)">
	<g
   id="g40">
		<rect
   y="143.246"
   width="39.918999"
   height="89.817001"
   id="rect38"
   x="0" />
	</g>
</g>
<g
   id="g48"
   transform="matrix(0.03906273,0,0,0.03906273,2.0338862,2.1664802)">
	<g
   id="g46">
		<rect
   x="472.078"
   y="288.909"
   width="39.918999"
   height="89.817001"
   id="rect44" />
	</g>
</g>
<g
   id="g54"
   transform="matrix(0.03906273,0,0,0.03906273,2.0338862,2.1664802)">
	<g
   id="g52">
		<rect
   x="472.078"
   y="143.246"
   width="39.918999"
   height="89.817001"
   id="rect50" />
	</g>
</g>
<g
   id="g58"
   transform="matrix(0.03906273,0,0,0.03906273,2.0338862,2.1664802)">
		<path
   inkscape:connector-curvature="0"
   id="path56"
   d="m 264.504,103.332 v 39.918 h 77.981 L 210.862,280.771 c -9.088,-5.568 -19.768,-8.783 -31.185,-8.783 H 59.921 c -33.017,0 -59.878,26.861 -59.878,59.878 v 119.756 c 0,33.017 26.861,59.878 59.878,59.878 h 119.756 c 33.017,0 59.878,-26.861 59.878,-59.878 V 331.866 c 0,-6.941 -1.201,-13.603 -3.382,-19.808 L 369.291,172.975 v 75.061 H 409.21 V 103.332 Z m -64.868,348.289 c 0,11.006 -8.954,19.959 -19.959,19.959 H 59.921 c -11.006,0 -19.959,-8.954 -19.959,-19.959 V 331.865 c 0,-11.006 8.954,-19.959 19.959,-19.959 h 119.756 c 11.006,0 19.959,8.954 19.959,19.959 z" />
	</g>
<g
   id="g62"
   transform="translate(0,-487.99701)">
</g>
<g
   id="g64"
   transform="translate(0,-487.99701)">
</g>
<g
   id="g66"
   transform="translate(0,-487.99701)">
</g>
<g
   id="g68"
   transform="translate(0,-487.99701)">
</g>
<g
   id="g70"
   transform="translate(0,-487.99701)">
</g>
<g
   id="g72"
   transform="translate(0,-487.99701)">
</g>
<g
   id="g74"
   transform="translate(0,-487.99701)">
</g>
<g
   id="g76"
   transform="translate(0,-487.99701)">
</g>
<g
   id="g78"
   transform="translate(0,-487.99701)">
</g>
<g
   id="g80"
   transform="translate(0,-487.99701)">
</g>
<g
   id="g82"
   transform="translate(0,-487.99701)">
</g>
<g
   id="g84"
   transform="translate(0,-487.99701)">
</g>
<g
   id="g86"
   transform="translate(0,-487.99701)">
</g>
<g
   id="g88"
   transform="translate(0,-487.99701)">
</g>
<g
   id="g90"
   transform="translate(0,-487.99701)">
</g>
</svg>