<?xml version="1.0" encoding="UTF-8" standalone="no"?>
<svg
   xmlns:dc="http://purl.org/dc/elements/1.1/"
   xmlns:cc="http://creativecommons.org/ns#"
   xmlns:rdf="http://www.w3.org/1999/02/22-rdf-syntax-ns#"
   xmlns:svg="http://www.w3.org/2000/svg"
   xmlns="http://www.w3.org/2000/svg"
   xmlns:sodipodi="http://sodipodi.sourceforge.net/DTD/sodipodi-0.dtd"
   xmlns:inkscape="http://www.inkscape.org/namespaces/inkscape"
   height="24"
   viewBox="0 0 18.035218 18"
   width="24"
   version="1.1"
   id="svg4"
   sodipodi:docname="g4.svg"
   inkscape:version="0.92.4 (5da689c313, 2019-01-14)">
  <metadata
     id="metadata10">
    <rdf:RDF>
      <cc:Work
         rdf:about="">
        <dc:format>image/svg+xml</dc:format>
        <dc:type
           rdf:resource="http://purl.org/dc/dcmitype/StillImage" />
        <dc:title></dc:title>
      </cc:Work>
    </rdf:RDF>
  </metadata>
  <defs
     id="defs8" />
  <sodipodi:namedview
     pagecolor="#ffffff"
     bordercolor="#666666"
     borderopacity="1"
     objecttolerance="10"
     gridtolerance="10"
     guidetolerance="10"
     inkscape:pageopacity="0"
     inkscape:pageshadow="2"
     inkscape:window-width="1681"
     inkscape:window-height="907"
     id="namedview6"
     showgrid="false"
     inkscape:zoom="11.084149"
     inkscape:cx="16.187785"
     inkscape:cy="15.979019"
     inkscape:window-x="0"
     inkscape:window-y="0"
     inkscape:window-maximized="0"
     inkscape:current-layer="svg4"
     units="px" />
  <path
     style="fill:#f2d435;fill-opacity:1;stroke:none;stroke-width:0.5367623px;stroke-linecap:butt;stroke-linejoin:miter;stroke-opacity:1"
     d="M 8.3684283,15.999805 15.874477,7.8642182 14.08271,6.8472691 15.390215,5.2976335 V 3.457441 L 13.45317,2.246788 11.903535,2.5857708 10.741308,3.7964238 10.886586,5.3944857 11.806683,6.7019906 11.951961,7.3799563 9.5306551,8.3000531 8.174724,6.3145819 H 6.4313836 L 5.0270261,7.2831045 4.4943389,8.7843137 5.1238784,9.7528362 5.6565657,11.060342 3.8163732,12.222569 2.7509986,13.384795 2.2183113,15.031283 3.1384075,15.999805 h 3.2929761 z"
     id="path817"
     inkscape:connector-curvature="0" />
  <path
     d="M 10.195378,11.386862 C 9.8278771,11.130471 9.4351487,10.921551 9.0244181,10.761937 9.5707979,10.265323 9.9332542,9.5696499 9.9963192,8.7908437 10.82489,7.9834868 11.910998,7.5408793 13.075306,7.5408793 c 0.908951,0 1.781667,0.2737054 2.524009,0.7914195 0.266022,0.1855271 0.631804,0.1204014 0.817332,-0.1456257 0.185414,-0.2659085 0.12029,-0.6318038 -0.145625,-0.8172176 -0.367501,-0.2563885 -0.760344,-0.4651951 -1.171074,-0.6249223 0.60291,-0.5479846 0.981991,-1.3381423 0.981991,-2.2150999 0,-1.6508339 -1.342957,-2.9937912 -2.99379,-2.9937912 -1.650719,0 -2.993676,1.3429573 -2.993676,2.9937912 0,0.8734034 0.375987,1.6606944 0.974767,2.2084503 -0.08198,0.031536 -0.163512,0.064904 -0.244236,0.1004472 C 10.457618,7.0000069 10.112246,7.198835 9.7910693,7.4322924 9.348118,6.3318525 8.2696926,5.5530476 7.0126134,5.5530476 c -1.6507183,0 -2.9937906,1.3429576 -2.9937906,2.9936747 0,0.8709962 0.3739229,1.6561077 0.9694933,2.2036327 -1.5923541,0.596604 -2.8834829,1.877986 -3.4091077,3.512193 -0.174291,0.541907 -0.081986,1.116608 0.2532951,1.57676 0.3352809,0.460036 0.8540257,0.72388 1.4232231,0.72388 h 5.1070745 c 0.3241585,0 0.5869706,-0.262813 0.5869706,-0.587085 0,-0.324158 -0.2628121,-0.58697 -0.5869706,-0.58697 H 3.2557266 c -0.1897706,0 -0.3626857,-0.08795 -0.4744841,-0.241371 C 2.669444,14.994341 2.6387138,14.802735 2.6967345,14.622023 3.27694,12.818111 5.0464514,11.558286 6.9997712,11.558286 c 0.9088381,0 1.7816729,0.273705 2.5240141,0.791419 0.2659085,0.185529 0.6318037,0.12029 0.8173327,-0.145624 0.185413,-0.265909 0.120282,-0.631805 -0.14574,-0.817219 z m 2.892771,-8.6771633 c 1.003434,0 1.819735,0.8162998 1.819735,1.8197346 0,1.0033198 -0.816301,1.8197344 -1.819735,1.8197344 -1.003319,0 -1.819735,-0.8164146 -1.819735,-1.8197344 0,-1.0034348 0.816416,-1.8197346 1.819735,-1.8197346 z M 7.0126134,6.7269892 c 1.0034385,0 1.8197412,0.8164116 1.8197412,1.8197331 0,1.0034347 -0.8163027,1.8197357 -1.8197412,1.8197357 -1.003434,0 -1.8197348,-0.816301 -1.8197348,-1.8197357 0,-1.0033215 0.8163008,-1.8197331 1.8197348,-1.8197331 z m 9.5096406,7.0478878 c 0,0.324158 -0.262812,0.586971 -0.587086,0.586971 h -1.614255 v 1.614255 c 0,0.324272 -0.262812,0.587085 -0.58697,0.587085 -0.324273,0 -0.587085,-0.262813 -0.587085,-0.587085 v -1.614255 h -1.614255 c -0.324158,0 -0.586971,-0.262813 -0.586971,-0.586971 0,-0.324272 0.262813,-0.587086 0.586971,-0.587086 h 1.614255 v -1.614255 c 0,-0.324158 0.262812,-0.58697 0.587085,-0.58697 0.324158,0 0.58697,0.262812 0.58697,0.58697 v 1.614255 h 1.614255 c 0.324274,0 0.587086,0.262814 0.587086,0.587086 z m 0,0"
     id="path2"
     inkscape:connector-curvature="0"
     style="stroke-width:0.02935426" />
</svg>
