<?xml version="1.0" encoding="UTF-8" standalone="no"?>
<!-- Generator: Adobe Illustrator 19.1.0, SVG Export Plug-In . SVG Version: 6.00 Build 0)  -->

<svg
   xmlns:dc="http://purl.org/dc/elements/1.1/"
   xmlns:cc="http://creativecommons.org/ns#"
   xmlns:rdf="http://www.w3.org/1999/02/22-rdf-syntax-ns#"
   xmlns:svg="http://www.w3.org/2000/svg"
   xmlns="http://www.w3.org/2000/svg"
   xmlns:sodipodi="http://sodipodi.sourceforge.net/DTD/sodipodi-0.dtd"
   xmlns:inkscape="http://www.inkscape.org/namespaces/inkscape"
   version="1.1"
   id="Capa_1"
   x="0px"
   y="0px"
   viewBox="0 0 24.000001 24.000001"
   xml:space="preserve"
   sodipodi:docname="left_arrow.svg"
   width="24"
   height="24"
   inkscape:version="0.92.4 (5da689c313, 2019-01-14)"><metadata
   id="metadata41"><rdf:RDF><cc:Work
       rdf:about=""><dc:format>image/svg+xml</dc:format><dc:type
         rdf:resource="http://purl.org/dc/dcmitype/StillImage" /><dc:title></dc:title></cc:Work></rdf:RDF></metadata><defs
   id="defs39" /><sodipodi:namedview
   pagecolor="#ffffff"
   bordercolor="#666666"
   borderopacity="1"
   objecttolerance="10"
   gridtolerance="10"
   guidetolerance="10"
   inkscape:pageopacity="0"
   inkscape:pageshadow="2"
   inkscape:window-width="1146"
   inkscape:window-height="672"
   id="namedview37"
   showgrid="false"
   inkscape:zoom="5.5955054"
   inkscape:cx="43.88437"
   inkscape:cy="34.806893"
   inkscape:window-x="279"
   inkscape:window-y="186"
   inkscape:window-maximized="0"
   inkscape:current-layer="Capa_1" />
<g
   id="g4"
   transform="matrix(0.04610468,0,0,0.04610468,1.203125,0.92771946)">
	<path
   d="m 145.188,238.575 215.5,-215.5 c 5.3,-5.3 5.3,-13.8 0,-19.1 -5.3,-5.3 -13.8,-5.3 -19.1,0 l -225.1,225.1 c -5.3,5.3 -5.3,13.8 0,19.1 l 225.1,225 c 2.6,2.6 6.1,4 9.5,4 3.4,0 6.9,-1.3 9.5,-4 5.3,-5.3 5.3,-13.8 0,-19.1 z"
   id="path2"
   inkscape:connector-curvature="0" />
</g>
<g
   id="g6"
   transform="translate(0,-453.17499)">
</g>
<g
   id="g8"
   transform="translate(0,-453.17499)">
</g>
<g
   id="g10"
   transform="translate(0,-453.17499)">
</g>
<g
   id="g12"
   transform="translate(0,-453.17499)">
</g>
<g
   id="g14"
   transform="translate(0,-453.17499)">
</g>
<g
   id="g16"
   transform="translate(0,-453.17499)">
</g>
<g
   id="g18"
   transform="translate(0,-453.17499)">
</g>
<g
   id="g20"
   transform="translate(0,-453.17499)">
</g>
<g
   id="g22"
   transform="translate(0,-453.17499)">
</g>
<g
   id="g24"
   transform="translate(0,-453.17499)">
</g>
<g
   id="g26"
   transform="translate(0,-453.17499)">
</g>
<g
   id="g28"
   transform="translate(0,-453.17499)">
</g>
<g
   id="g30"
   transform="translate(0,-453.17499)">
</g>
<g
   id="g32"
   transform="translate(0,-453.17499)">
</g>
<g
   id="g34"
   transform="translate(0,-453.17499)">
</g>
</svg>