<?xml version="1.0" encoding="UTF-8" standalone="no"?>
<!-- Generator: Adobe Illustrator 19.0.0, SVG Export Plug-In . SVG Version: 6.00 Build 0)  -->

<svg
   xmlns:dc="http://purl.org/dc/elements/1.1/"
   xmlns:cc="http://creativecommons.org/ns#"
   xmlns:rdf="http://www.w3.org/1999/02/22-rdf-syntax-ns#"
   xmlns:svg="http://www.w3.org/2000/svg"
   xmlns="http://www.w3.org/2000/svg"
   xmlns:sodipodi="http://sodipodi.sourceforge.net/DTD/sodipodi-0.dtd"
   xmlns:inkscape="http://www.inkscape.org/namespaces/inkscape"
   version="1.1"
   id="Capa_1"
   x="0px"
   y="0px"
   viewBox="0 0 99.999998 99.999998"
   xml:space="preserve"
   sodipodi:docname="agrum.svg"
   width="100"
   height="100"
   inkscape:version="0.92.4 (5da689c313, 2019-01-14)"><metadata
   id="metadata55"><rdf:RDF><cc:Work
       rdf:about=""><dc:format>image/svg+xml</dc:format><dc:type
         rdf:resource="http://purl.org/dc/dcmitype/StillImage" /><dc:title></dc:title></cc:Work></rdf:RDF></metadata><defs
   id="defs53" /><sodipodi:namedview
   pagecolor="#ffffff"
   bordercolor="#666666"
   borderopacity="1"
   objecttolerance="10"
   gridtolerance="10"
   guidetolerance="10"
   inkscape:pageopacity="0"
   inkscape:pageshadow="2"
   inkscape:window-width="1157"
   inkscape:window-height="850"
   id="namedview51"
   showgrid="false"
   inkscape:zoom="2.0155651"
   inkscape:cx="-50.87537"
   inkscape:cy="28.425257"
   inkscape:window-x="0"
   inkscape:window-y="0"
   inkscape:window-maximized="0"
   inkscape:current-layer="g1024" />









<g
   id="g20"
   transform="translate(0,-368.35501)">
</g>
<g
   id="g22"
   transform="translate(0,-368.35501)">
</g>
<g
   id="g24"
   transform="translate(0,-368.35501)">
</g>
<g
   id="g26"
   transform="translate(0,-368.35501)">
</g>
<g
   id="g28"
   transform="translate(0,-368.35501)">
</g>
<g
   id="g30"
   transform="translate(0,-368.35501)">
</g>
<g
   id="g32"
   transform="translate(0,-368.35501)">
</g>
<g
   id="g34"
   transform="translate(0,-368.35501)">
</g>
<g
   id="g36"
   transform="translate(0,-368.35501)">
</g>
<g
   id="g38"
   transform="translate(0,-368.35501)">
</g>
<g
   id="g40"
   transform="translate(0,-368.35501)">
</g>
<g
   id="g42"
   transform="translate(0,-368.35501)">
</g>
<g
   id="g44"
   transform="translate(0,-368.35501)">
</g>
<g
   id="g46"
   transform="translate(0,-368.35501)">
</g>
<g
   id="g48"
   transform="translate(0,-368.35501)">
</g>
<g
   id="g1024"
   transform="matrix(0.17226493,0,0,0.17226493,5.7311758,5.8211164)"><g
     id="XMLID_1_"
     transform="matrix(1.5103439,0,0,1.5103439,-118.27653,-121.64155)">
	<path
   d="m 412.4,174.8 c 0,-6.1 -1.3,-11.6 -4,-16.2 -2.6,-4.6 -6.5,-8.4 -11.7,-11.4 C 353.5,122.3 310.2,97.4 267,72.5 255.3,65.8 244.1,66 232.5,72.8 c -17.2,10.1 -103.4,59.5 -129,74.4 -10.6,6.1 -15.7,15.5 -15.7,27.7 0,50.1 0,100.3 0,150.4 0,6 1.3,11.3 3.8,15.9 2.6,4.7 6.6,8.7 11.9,11.8 25.7,14.9 111.8,64.2 129,74.4 11.6,6.8 22.9,7.1 34.5,0.3 43.2,-25 86.5,-49.8 129.7,-74.7 5.4,-3.1 9.3,-7 11.9,-11.8 2.5,-4.6 3.8,-9.9 3.8,-15.9 0,-0.1 0,-100.4 0,-150.5"
   class="st0"
   id="XMLID_3_"
   inkscape:connector-curvature="0"
   style="fill:#5c8dbc" />
	<path
   d="M 250.5,249.5 91.4,341.1 c 2.6,4.7 6.6,8.7 11.9,11.8 25.7,14.9 111.8,64.2 129,74.4 11.6,6.8 22.9,7.1 34.5,0.3 43.2,-25 86.5,-49.8 129.7,-74.7 5.4,-3.1 9.3,-7 11.9,-11.8 L 250.5,249.5"
   class="st1"
   id="XMLID_4_"
   inkscape:connector-curvature="0"
   style="fill:#1a4674" />
	<path
   d="m 203.4,276.6 c 9.3,16.2 26.7,27.1 46.6,27.1 20.1,0 37.6,-11 46.8,-27.4 l -46.3,-26.8 -47.1,27.1"
   class="st1"
   id="XMLID_5_"
   inkscape:connector-curvature="0"
   style="fill:#1a4674" />
	<path
   d="m 412.4,174.8 c 0,-6.1 -1.3,-11.6 -4,-16.2 l -157.9,90.9 158.1,91.6 c 2.5,-4.6 3.8,-9.9 3.8,-15.9 0,0 0,-100.3 0,-150.4"
   class="st2"
   id="XMLID_6_"
   inkscape:connector-curvature="0"
   style="fill:#1b598e" />
	<polyline
   points="403.7,256.1 391.3,256.1 391.3,268.4 379,268.4 379,256.1 366.6,256.1 366.6,243.7    379,243.7 379,231.4 391.3,231.4 391.3,243.7 403.7,243.7 403.7,256.1  "
   class="st3"
   id="XMLID_7_"
   style="fill:#ffffff" />
	<polyline
   points="358.6,256.1 346.2,256.1 346.2,268.4 333.9,268.4 333.9,256.1 321.5,256.1    321.5,243.7 333.9,243.7 333.9,231.4 346.2,231.4 346.2,243.7 358.6,243.7 358.6,256.1  "
   class="st3"
   id="XMLID_8_"
   style="fill:#ffffff" />
	<path
   d="m 296.8,276.3 c -9.2,16.3 -26.7,27.4 -46.8,27.4 -20,0 -37.4,-10.9 -46.6,-27.1 -4.5,-7.9 -7.1,-16.9 -7.1,-26.6 0,-29.7 24,-53.7 53.7,-53.7 19.8,0 37.1,10.8 46.4,26.8 l 46.9,-27 c -18.7,-32.2 -53.5,-53.9 -93.4,-53.9 -59.6,0 -107.8,48.3 -107.8,107.8 0,19.5 5.2,37.9 14.3,53.7 18.6,32.3 53.6,54.1 93.6,54.1 40.1,0 75.1,-21.9 93.7,-54.4 l -46.9,-27.1"
   class="st3"
   id="XMLID_9_"
   inkscape:connector-curvature="0"
   style="fill:#ffffff" />
</g></g><style
   id="style1095"
   type="text/css">
	.st0{fill:#5C8DBC;}
	.st1{fill:#1A4674;}
	.st2{fill:#1B598E;}
	.st3{fill:#FFFFFF;}
</style></svg>